{
  "success": true,
  "data": {
    "current_page": 2,
    "last_page": 28,
    "total": 274,
    "data": [
      {
        "id": 14041,
        "title": "นางฟ้าของสามี",
        "poster": "https://assets.stardusttv.cc/uploadfile/20251117/848888781110616064.jpg",
        "plays": "🔥382.4k"
      },
      {
        "id": 7275,
        "title": "ล่ารักแม่เลี้ยงเดี่ยว",
        "poster": "https://assets.stardusttv.cc/uploadfile/20250425/774350494104965120.jpg",
        "plays": "🔥302.9k"
      },
      {
        "id": 14109,
        "title": "อุ้มรักป่วนใจ ยัยแฟนเก่า",
        "poster": "https://assets.stardusttv.cc/uploadfile/20251203/854674724501770240.jpg",
        "plays": "🔥268.8k"
      },
      {
        "id": 14277,
        "title": "นางฟ้าของสามี",
        "poster": "https://assets.stardusttv.cc/uploadfile/20260302/886923083539808256.jpg",
        "plays": "🔥355.4k"
      },
      {
        "id": 14680,
        "title": "วิวาห์วุ่น คว้าพี่ทหารมาเป็นสามี",
        "poster": "https://assets.stardusttv.cc/uploadfile/20251222/861656316516737024.jpg",
        "plays": "🔥116.5k"
      },
      {
        "id": 14987,
        "title": "หนี้รัก",
        "poster": "https://assets.stardusttv.cc/uploadfile/20251224/862385463971074048.jpg",
        "plays": "🔥178.2k"
      },
      {
        "id": 941,
        "title": "เทพยดาตัวน้อยพิชิตหัวใจ",
        "poster": "https://assets.stardust-tv.com/snapshot3/941_%E6%B3%B0%E8%AF%AD.png",
        "plays": "🔥653.2k"
      },
      {
        "id": 14440,
        "title": "คุณชายเกิดใหม่ขอเอาคืน",
        "poster": "https://assets.stardusttv.cc/uploadfile/20251203/854780791374159872.jpg",
        "plays": "🔥129.6k"
      },
      {
        "id": 15121,
        "title": "เมียปลอมของประธานฟาดเรียบ",
        "poster": "https://assets.stardusttv.cc/uploadfile/20260130/875779182640709632.jpg",
        "plays": "🔥14.1k"
      },
      {
        "id": 15276,
        "title": "เกิดใหม่ชาตินี้ ขอเปย์เธอ",
        "poster": "https://assets.stardusttv.cc/uploadfile/20260108/867815232367943680.jpg",
        "plays": "🔥27.4k"
      }
    ]
  }
}